Semaforo/Semaforo.sim/sim_1/behav/xsim/Semaforo_tb.vcd
$date
   Tue Nov 19 16:31:04 2024
$end

$version
  2024.1
  $dumpfile ("Semaforo_tb.vcd") 
$end

$timescale
  1ps
$end

$scope module Semaforo_tb $end
$scope module sif $end
$var reg 1 ! clk $end
$var reg 1 " rst_n $end
$var reg 1 # maintenance_button $end
$var reg 16 $ red_time [15:0] $end
$var reg 16 % yellow_time [15:0] $end
$var reg 16 & green_time [15:0] $end
$var reg 1 ' red $end
$var reg 1 ( yellow $end
$var reg 1 ) green $end
$scope task reset $end
$upscope $end
$scope task configure_timing $end
$var reg 16 * r_time [15:0] $end
$var reg 16 + y_time [15:0] $end
$var reg 16 , g_time [15:0] $end
$upscope $end
$scope task toggle_maintenance $end
$upscope $end
$upscope $end
$scope module uut $end
$var wire 1 - clk $end
$var wire 1 . rst_n $end
$var wire 1 / maintenance_button $end
$var wire 16 0 red_time [15:0] $end
$var wire 16 1 yellow_time [15:0] $end
$var wire 16 2 green_time [15:0] $end
$var reg 1 3 red $end
$var reg 1 4 yellow $end
$var reg 1 5 green $end
$var reg 2 6 current_state $end
$var reg 2 7 next_state $end
$var reg 16 8 counter [15:0] $end
$var reg 1 9 in_maintenance $end
$var reg 1 : red_enable $end
$var reg 1 ; yellow_enable $end
$var reg 1 < green_enable $end
$upscope $end
$upscope $end
$enddefinitions $end

#0
$dumpvars
0!
0"
x#
bx $
bx %
bx &
1'
0(
0)
bx *
bx +
bx ,
0-
0.
x/
bx 0
bx 1
bx 2
13
04
05
b0 6
b10 7
b0 8
09
1:
0;
0<
$end

#10000
1!
1-

#20000
0!
0-

#30000
1!
1-

#40000
0!
0-

#50000
1!
1"
b11110 $
b10100 %
b101000 &
0'
1)
b11110 *
b10100 +
b101000 ,
1-
1.
b11110 0
b10100 1
b101000 2
03
15
b10 6
b1 7
0:
1<

#60000
0!
0-

#70000
1!
1(
0)
1-
14
05
b1 6
b0 7
1;
0<

#80000
0!
0-

#90000
1!
1'
0(
1-
13
04
b0 6
b10 7
1:
0;

#100000
0!
0-

#110000
1!
0'
1)
1-
03
15
b10 6
b1 7
0:
1<

#120000
0!
0-

#130000
1!
1(
0)
1-
14
05
b1 6
b0 7
1;
0<

#140000
0!
0-

#150000
1!
1'
0(
1-
13
04
b0 6
b10 7
1:
0;

#160000
0!
0-

#170000
1!
0'
1)
1-
03
15
b10 6
b1 7
0:
1<

#180000
0!
0-

#190000
1!
1(
0)
1-
14
05
b1 6
b0 7
1;
0<

#200000
0!
0-

#210000
1!
1'
0(
1-
13
04
b0 6
b10 7
1:
0;

#220000
0!
0-

#230000
1!
0'
1)
1-
03
15
b10 6
b1 7
0:
1<

#240000
0!
0-

#250000
1!
1(
0)
1-
14
05
b1 6
b0 7
1;
0<

#260000
0!
0-

#270000
1!
1'
0(
1-
13
04
b0 6
b10 7
1:
0;

#280000
0!
0-

#290000
1!
0'
1)
1-
03
15
b10 6
b1 7
0:
1<

#300000
0!
0-

#310000
1!
1(
0)
1-
14
05
b1 6
b0 7
1;
0<

#320000
0!
0-

#330000
1!
1'
0(
1-
13
04
b0 6
b10 7
1:
0;

#340000
0!
0-

#350000
1!
0'
1)
1-
03
15
b10 6
b1 7
0:
1<

#360000
0!
0-

#370000
1!
1(
0)
1-
14
05
b1 6
b0 7
1;
0<

#380000
0!
0-

#390000
1!
1'
0(
1-
13
04
b0 6
b10 7
1:
0;

#400000
0!
0-

#410000
1!
0'
1)
1-
03
15
b10 6
b1 7
0:
1<

#420000
0!
0-

#430000
1!
1(
0)
1-
14
05
b1 6
b0 7
1;
0<

#440000
0!
0-

#450000
1!
1'
0(
1-
13
04
b0 6
b10 7
1:
0;

#460000
0!
0-

#470000
1!
0'
1)
1-
03
15
b10 6
b1 7
0:
1<

#480000
0!
0-

#490000
1!
1(
0)
1-
14
05
b1 6
b0 7
1;
0<

#500000
0!
0-

#510000
1!
1'
0(
1-
13
04
b0 6
b10 7
1:
0;

#520000
0!
0-

#530000
1!
0'
1)
1-
03
15
b10 6
b1 7
0:
1<

#540000
0!
0-

#550000
1!
1(
0)
1-
14
05
b1 6
b0 7
1;
0<

#560000
0!
0-

#570000
1!
1'
0(
1-
13
04
b0 6
b10 7
1:
0;

#580000
0!
0-

#590000
1!
0'
1)
1-
03
15
b10 6
b1 7
0:
1<

#600000
0!
0-

#610000
1!
1(
0)
1-
14
05
b1 6
b0 7
1;
0<

#620000
0!
0-

#630000
1!
1'
0(
1-
13
04
b0 6
b10 7
1:
0;

#640000
0!
0-

#650000
1!
0'
1)
1-
03
15
b10 6
b1 7
0:
1<

#660000
0!
0-

#670000
1!
1(
0)
1-
14
05
b1 6
b0 7
1;
0<

#680000
0!
0-

#690000
1!
1'
0(
1-
13
04
b0 6
b10 7
1:
0;

#700000
0!
0-

#710000
1!
0'
1)
1-
03
15
b10 6
b1 7
0:
1<

#720000
0!
0-

#730000
1!
1(
0)
1-
14
05
b1 6
b0 7
1;
0<

#740000
0!
0-

#750000
1!
1'
0(
1-
13
04
b0 6
b10 7
1:
0;

#760000
0!
0-

#770000
1!
0'
1)
1-
03
15
b10 6
b1 7
0:
1<

#780000
0!
0-

#790000
1!
1(
0)
1-
14
05
b1 6
b0 7
1;
0<

#800000
0!
0-

#810000
1!
1'
0(
1-
13
04
b0 6
b10 7
1:
0;

#820000
0!
0-

#830000
1!
0'
1)
1-
03
15
b10 6
b1 7
0:
1<

#840000
0!
0-

#850000
1!
1(
0)
1-
14
05
b1 6
b0 7
1;
0<

#860000
0!
0-

#870000
1!
1'
0(
1-
13
04
b0 6
b10 7
1:
0;

#880000
0!
0-

#890000
1!
0'
1)
1-
03
15
b10 6
b1 7
0:
1<

#900000
0!
0-

#910000
1!
1(
0)
1-
14
05
b1 6
b0 7
1;
0<

#920000
0!
0-

#930000
1!
1'
0(
1-
13
04
b0 6
b10 7
1:
0;

#940000
0!
0-

#950000
1!
0'
1)
1-
03
15
b10 6
b1 7
0:
1<

#960000
0!
0-

#970000
1!
1(
0)
1-
14
05
b1 6
b0 7
1;
0<

#980000
0!
0-

#990000
1!
1'
0(
1-
13
04
b0 6
b10 7
1:
0;

